<?xml version="1.0" encoding="utf-8"?>
<!-- Generator: Adobe Illustrator 16.0.0, SVG Export Plug-In . SVG Version: 6.00 Build 0)  -->
<!DOCTYPE svg PUBLIC "-//W3C//DTD SVG 1.1//EN" "http://www.w3.org/Graphics/SVG/1.1/DTD/svg11.dtd">
<svg version="1.1" id="Layer_1" xmlns="http://www.w3.org/2000/svg" xmlns:xlink="http://www.w3.org/1999/xlink" x="0px" y="0px" width="22.398px" height="24px" viewBox="0 0 22.398 24" enable-background="new 0 0 22.398 24" xml:space="preserve">
<g>
	<path fill="#148fcf" d="M18.398,4.801h-3.199V4c0-2.207-1.789-4-4-4c-2.207,0-4,1.793-4,4v0.801H4L0,24h22.398L18.398,4.801z M8.801,4
		c0-1.324,1.074-2.398,2.398-2.398c1.328,0,2.402,1.074,2.402,2.398v0.801H8.801V4z M5.602,6.398h1.597v3.204h1.602V6.398h4.801
		v3.204h1.598V6.398h1.602l3.551,16H1.977L5.602,6.398z M5.602,6.398"/>
</g>
</svg>
