<?xml version="1.0" encoding="utf-8"?>
<!-- Generator: Adobe Illustrator 16.0.0, SVG Export Plug-In . SVG Version: 6.00 Build 0)  -->
<!DOCTYPE svg PUBLIC "-//W3C//DTD SVG 1.1//EN" "http://www.w3.org/Graphics/SVG/1.1/DTD/svg11.dtd">
<svg version="1.1" id="Layer_1" xmlns="http://www.w3.org/2000/svg" xmlns:xlink="http://www.w3.org/1999/xlink" x="0px" y="0px" width="927.089px" height="918.058px" viewBox="0 0 927.089 918.058" enable-background="new 0 0 927.089 918.058" xml:space="preserve">
<path fill="#148fcf" fill-rule="evenodd" clip-rule="evenodd" d="M463.635,685.858c1.454-1.354,2.927-2.639,4.302-4.021
	c7.856-7.904,15.676-15.846,23.535-23.747c5.686-5.714,11.438-11.361,17.119-17.079c8.557-8.611,17.051-17.284,25.622-25.881
	c7.354-7.378,14.79-14.675,22.167-22.03c5.272-5.255,10.447-10.607,15.78-15.8c3.419-3.33,7.469-5.404,12.421-5.393
	c23.038,0.055,46.078,0.018,69.115,0.152c4.778,0.028,9.564,0.534,14.324,1.037c3.541,0.375,7.039,1.142,10.568,1.655
	c3.063,0.445,6.151,0.716,9.21,1.186c2.191,0.336,4.354,0.864,6.526,1.319c2.569,0.538,5.144,1.059,7.702,1.646
	c1.852,0.425,3.686,0.925,5.518,1.43c1.757,0.484,3.496,1.031,5.25,1.526c3.786,1.071,7.627,1.978,11.354,3.223
	c5.521,1.845,11.005,3.813,16.422,5.939c4.684,1.838,9.326,3.813,13.852,6.007c6.398,3.1,12.845,6.119,18.92,9.854
	c4.406,2.709,9.024,5.087,13.32,7.953c6.603,4.403,13.156,8.908,19.456,13.728c6.112,4.676,12.023,9.642,17.753,14.781
	c4.741,4.253,9.232,8.811,13.576,13.476c5.565,5.977,11.116,11.998,16.217,18.365c4.851,6.056,9.561,12.26,13.669,18.876
	c2.66,4.284,5.462,8.484,8.007,12.835c2.678,4.575,5.187,9.253,7.651,13.948c1.926,3.669,3.8,7.377,5.468,11.168
	c2.307,5.244,4.42,10.573,6.573,15.883c1.332,3.285,2.648,6.579,3.852,9.913c0.825,2.285,1.465,4.64,2.146,6.976
	c0.438,1.499,0.778,3.026,1.199,4.531c1.193,4.257,2.469,8.491,3.583,12.769c0.56,2.146,0.811,4.372,1.249,6.553
	c0.423,2.098,0.954,4.175,1.354,6.276c0.626,3.283,1.146,6.586,1.778,9.866c0.509,2.636,1.123,5.251,1.683,7.876
	c0.083,0.39,0.139,0.785,0.193,1.181c0.372,2.67,0.54,5.389,1.158,8.001c0.859,3.63,1.421,7.291,1.999,10.968
	c0.688,4.378,1.774,8.691,2.592,13.051c0.498,2.659,0.771,5.359,1.225,8.028c0.426,2.507,0.977,4.991,1.436,7.493
	c0.574,3.131,1.079,6.275,1.675,9.402c0.517,2.713,1.118,5.411,1.684,8.115c0.065,0.312,0.157,0.619,0.201,0.935
	c0.38,2.749,0.669,5.514,1.151,8.243c0.44,2.486,1.269,4.912,1.598,7.408c0.396,2.984,0.532,5.946-0.426,8.979
	c-1.1,3.479-2.748,6.481-5.473,8.844c-2.093,1.815-4.448,3.124-7.175,3.976c-2.216,0.692-4.371,0.753-6.587,0.753
	c-295.668,0.007-591.336,0.005-887.004,0.028c-2.647,0-5.279-0.048-7.736-1.047c-3.25-1.32-6.159-3.195-8.341-6.035
	c-1.793-2.335-3.04-4.986-3.64-7.808c-0.578-2.72-0.556-5.552,0.166-8.313c0.219-0.842,0.331-1.712,0.498-2.567
	c0.562-2.864,1.125-5.728,1.69-8.592c0.046-0.234,0.135-0.462,0.168-0.697c0.387-2.748,0.729-5.502,1.162-8.242
	c0.271-1.716,0.688-3.408,1.017-5.114c0.513-2.658,1.016-5.318,1.506-7.981c0.547-2.97,1.065-5.943,1.611-8.913
	c0.504-2.737,1.045-5.468,1.539-8.208c0.492-2.729,0.922-5.47,1.422-8.197c0.516-2.803,1.083-5.597,1.629-8.395
	c0.031-0.155,0.1-0.305,0.123-0.461c0.411-2.737,0.759-5.486,1.243-8.21c0.456-2.566,1.056-5.106,1.592-7.659
	c0.05-0.234,0.103-0.469,0.141-0.705c0.736-4.543,1.403-9.1,2.23-13.627c0.47-2.572,1.222-5.094,1.809-7.646
	c0.41-1.779,0.706-3.587,1.142-5.359c0.923-3.76,1.896-7.507,2.864-11.255c0.726-2.812,1.397-5.64,2.235-8.417
	c0.974-3.229,2.029-6.437,3.181-9.605c1.509-4.151,3.079-8.284,4.746-12.374c1.714-4.206,3.472-8.401,5.403-12.511
	c2.063-4.389,4.304-8.697,6.553-12.995c3.017-5.764,6.195-11.436,9.8-16.863c2.819-4.246,5.375-8.676,8.345-12.811
	c3.389-4.718,7.018-9.271,10.705-13.762c3.947-4.809,7.892-9.646,12.184-14.139c5.855-6.128,11.929-12.059,18.109-17.859
	c6.721-6.309,13.985-12.001,21.408-17.45c5.829-4.279,11.871-8.29,17.995-12.14c4.631-2.911,9.542-5.377,14.326-8.046
	c6.155-3.435,12.517-6.425,18.995-9.206c4.934-2.117,9.83-4.296,14.919-6.03c4.372-1.49,8.657-3.245,13.059-4.638
	c3.983-1.26,8.069-2.196,12.115-3.26c3.142-0.825,6.276-1.681,9.438-2.42c2.632-0.614,5.3-1.069,7.948-1.611
	c2.788-0.57,5.572-1.16,8.358-1.741c0.156-0.033,0.31-0.085,0.467-0.103c3.316-0.371,6.637-0.718,9.949-1.118
	c1.257-0.151,2.497-0.432,3.747-0.642c0.629-0.105,1.259-0.224,1.894-0.272c9.562-0.737,19.128-1.21,28.728-1.152
	c17.279,0.104,34.559,0.018,51.838,0.043c2.531,0.004,5.069-0.175,7.521,0.922c2.288,1.023,4.576,2.007,6.375,3.792
	c7.227,7.172,14.425,14.372,21.635,21.561c5.607,5.59,11.234,11.161,16.822,16.77c6.293,6.317,12.532,12.688,18.833,18.997
	c5.711,5.718,11.498,11.36,17.209,17.079c6.418,6.428,12.776,12.915,19.184,19.354c4.925,4.948,9.884,9.86,14.831,14.786
	C463.036,685.384,463.294,685.571,463.635,685.858z M41.082,880.532c0.56,0.27,0.699,0.396,0.839,0.396
	c280.789,0.023,561.579,0.039,842.369,0.05c0.396,0,0.795-0.048,1.19-0.089c0.067-0.007,0.132-0.087,0.189-0.142
	c0.057-0.053,0.103-0.116,0.45-0.52c-0.332-1.813-0.748-3.901-1.095-6.002c-0.763-4.622-1.49-9.249-2.235-13.874
	c-0.038-0.236-0.1-0.469-0.148-0.703c-0.532-2.554-1.124-5.098-1.581-7.665c-0.484-2.723-0.84-5.469-1.256-8.203
	c-0.023-0.157-0.095-0.306-0.126-0.462c-0.537-2.718-1.096-5.432-1.6-8.156c-0.519-2.805-0.969-5.622-1.475-8.429
	c-0.479-2.662-1.003-5.317-1.484-7.979c-0.538-2.97-1.057-5.943-1.571-8.918c-0.298-1.726-0.499-3.472-0.871-5.181
	c-0.842-3.861-1.878-7.683-2.612-11.563c-0.499-2.635-1.076-5.216-1.928-7.767c-1.144-3.429-1.982-6.956-3.072-10.404
	c-1.403-4.443-2.716-8.933-4.447-13.25c-2.328-5.81-4.923-11.52-7.586-17.186c-2.103-4.476-4.339-8.901-6.773-13.203
	c-2.935-5.188-6.069-10.267-9.257-15.304c-2.306-3.645-4.7-7.249-7.304-10.683c-3.27-4.311-6.681-8.526-10.234-12.606
	c-4.47-5.13-8.947-10.281-13.781-15.06c-6.623-6.549-13.55-12.803-20.954-18.479c-7.244-5.553-14.697-10.796-22.532-15.52
	c-6.374-3.843-12.813-7.532-19.52-10.751c-4.075-1.955-8.173-3.865-12.303-5.702c-2.601-1.155-5.247-2.227-7.93-3.177
	c-4.158-1.472-8.349-2.858-12.557-4.184c-3.217-1.014-6.481-1.872-9.723-2.811c-1.886-0.546-3.771-1.091-5.646-1.675
	c-1.073-0.335-1.884-0.223-2.752,0.667c-3.605,3.697-7.299,7.308-10.971,10.939c-3.116,3.081-6.27,6.125-9.366,9.225
	c-4.645,4.649-9.24,9.347-13.882,13.999c-3.376,3.385-6.814,6.708-10.187,10.097c-4.587,4.607-9.117,9.271-13.709,13.873
	c-3.38,3.387-6.845,6.688-10.228,10.072c-4.656,4.658-9.259,9.371-13.909,14.036c-3.332,3.342-6.729,6.617-10.053,9.968
	c-4.533,4.572-8.99,9.221-13.543,13.775c-5.454,5.457-10.996,10.827-16.458,16.277c-4.461,4.451-8.841,8.983-13.292,13.444
	c-5.465,5.477-10.984,10.897-16.445,16.378c-4.573,4.589-9.071,9.253-13.646,13.84c-5.425,5.439-10.904,10.824-16.346,16.248
	c-4.898,4.882-9.789,9.771-14.66,14.68c-5.662,5.704-11.34,11.394-16.934,17.163c-4.205,4.337-9.146,6.939-15.277,6.848
	c-1.244-0.019-2.471-0.548-3.721-0.745c-2.796-0.439-5.262-1.7-7.24-3.581c-5.074-4.823-9.984-9.82-14.935-14.771
	c-5.788-5.788-11.546-11.605-17.323-17.403c-4.532-4.547-9.075-9.084-13.612-13.627c-3.517-3.521-7.032-7.043-10.549-10.564
	c-3.519-3.524-7.045-7.041-10.557-10.572c-3.449-3.47-6.864-6.974-10.332-10.426c-3.406-3.392-6.892-6.704-10.284-10.109
	c-4.557-4.572-9.043-9.214-13.585-13.799c-4.592-4.637-9.208-9.248-13.828-13.856c-4.45-4.439-8.918-8.861-13.377-13.292
	c-3.456-3.435-6.926-6.856-10.362-10.311c-3.537-3.555-7.021-7.163-10.565-10.71c-4.487-4.491-9.019-8.94-13.521-13.418
	c-3.608-3.586-7.211-7.177-10.799-10.783c-2.483-2.496-4.932-5.027-7.405-7.533c-3.303-3.346-6.59-6.706-9.928-10.015
	c-4.557-4.518-9.172-8.977-13.73-13.493c-3.948-3.911-7.887-7.833-11.749-11.828c-0.948-0.98-1.842-1.05-2.972-0.619
	c-0.657,0.251-1.314,0.526-1.996,0.687c-1.845,0.435-3.732,0.71-5.548,1.237c-2.711,0.786-5.377,1.729-8.06,2.613
	c-4.266,1.406-8.604,2.628-12.773,4.277c-5.245,2.077-10.402,4.397-15.504,6.813c-5.448,2.58-10.909,5.177-16.141,8.159
	c-5.919,3.373-11.626,7.126-17.352,10.827c-2.77,1.791-5.409,3.791-8.039,5.787c-3.639,2.763-7.352,5.453-10.783,8.459
	c-5.583,4.892-11.137,9.841-16.377,15.09c-4.57,4.579-8.993,9.319-13.085,14.374c-3.706,4.578-7.541,9.046-10.836,13.936
	c-3.861,5.73-7.781,11.427-11.457,17.274c-2.497,3.973-4.756,8.11-6.872,12.3c-2.649,5.244-5.12,10.582-7.522,15.944
	c-1.605,3.583-3.025,7.254-4.403,10.932c-1.576,4.206-3.155,8.42-4.469,12.712c-1.24,4.056-2.146,8.214-3.18,12.332
	c-0.365,1.452-0.647,2.926-1.008,4.379c-0.567,2.294-1.262,4.561-1.732,6.874c-0.491,2.414-0.759,4.874-1.164,7.307
	c-0.38,2.279-0.775,4.557-1.229,6.822c-0.545,2.725-1.239,5.42-1.725,8.154c-0.805,4.534-1.493,9.088-2.235,13.633
	c-0.038,0.234-0.141,0.458-0.186,0.691c-0.528,2.802-1.072,5.602-1.569,8.409c-0.454,2.567-0.852,5.145-1.28,7.717
	c-0.3,1.797-0.587,3.598-0.923,5.388c-0.598,3.186-1.242,6.361-1.84,9.546c-0.469,2.505-0.909,5.015-1.34,7.525
	C41.58,877.237,41.342,878.877,41.082,880.532z M463.417,791.858c2.731-2.583,181.204-180.679,182.034-182.676
	c-0.653-0.074-1.262-0.201-1.87-0.202c-16.32-0.021-32.64-0.019-48.959-0.056c-1.136-0.003-1.938,0.369-2.721,1.174
	c-2.101,2.161-4.301,4.226-6.433,6.357c-5.62,5.617-11.23,11.245-16.837,16.878c-5.33,5.355-10.644,10.729-15.979,16.081
	c-5.718,5.739-11.463,11.452-17.176,17.197c-5.262,5.29-10.476,10.629-15.748,15.908c-5.496,5.504-11.06,10.94-16.553,16.448
	c-6.444,6.461-12.835,12.977-19.265,19.452c-6.713,6.762-13.438,13.512-20.171,20.255c-6.66,6.672-13.341,13.324-20.005,19.993
	c-2.229,2.23-4.435,4.485-6.692,6.77C445.956,774.366,454.688,783.114,463.417,791.858z M281.854,609.086
	c-0.103,0.183-0.205,0.366-0.308,0.549c43.011,43.066,86.022,86.134,129.203,129.371c8.824-8.852,17.607-17.66,26.463-26.541
	c-0.848-0.933-1.46-1.661-2.129-2.334c-4.529-4.554-9.074-9.093-13.606-13.645c-5.482-5.507-10.952-11.028-16.438-16.533
	c-6.496-6.519-13.002-13.027-19.506-19.539c-5.563-5.568-11.137-11.125-16.69-16.702c-5.378-5.4-10.722-10.834-16.107-16.227
	c-5.726-5.732-11.514-11.403-17.201-17.174c-1.064-1.079-2.158-1.396-3.598-1.392c-15.913,0.043-31.826,0.038-47.738,0.053
	C283.417,608.974,282.635,609.047,281.854,609.086z"/>
<path fill="#148fcf" fill-rule="evenodd" clip-rule="evenodd" d="M291.124,400.222c-1.764,0-3.174,0-4.863,0c0,1.082,0,2.019,0,2.955
	c0,22.718,0.001,45.437-0.001,68.155c0,1.359-0.052,2.72-0.024,4.079c0.074,3.676-1.486,6.799-3.579,9.598
	c-2.459,3.287-5.722,5.891-9.769,6.635c-5.271,0.969-10.503,0.902-15.309-2.443c-3.261-2.271-5.532-5.132-6.96-8.692
	c-0.946-2.361-1.39-4.884-1.378-7.478c0.038-7.679,0.013-15.358,0.012-23.038c0-16.398,0-32.797,0-49.195c0-1.037,0-2.073,0-3.111
	c-2.309-1.225-4.523-2.38-6.721-3.568c-5.998-3.244-10.652-7.927-14.351-13.587c-2.126-3.254-3.731-6.794-4.853-10.504
	c-0.662-2.193-0.904-4.515-1.313-6.783c-0.837-4.649-0.774-9.387-1.314-14.047c-0.405-3.502-0.34-7.024-0.825-10.485
	c-0.589-4.207-0.422-8.479-1.08-12.623c-0.568-3.58-0.609-7.138-0.876-10.708c-0.303-4.056-0.653-8.109-0.988-12.163
	c-0.302-3.654-0.578-7.312-0.923-10.962c-0.458-4.841-1.008-9.673-1.438-14.517c-0.134-1.5-0.057-3.026,0.018-4.537
	c0.051-1.034,0.367-2.058,0.386-3.09c0.053-2.824,1.088-5.393,1.836-8.055c0.906-3.229,2.436-6.127,4.14-8.951
	c3.224-5.342,7.592-9.591,12.753-13.057c3.086-2.072,6.493-3.502,9.944-4.775c1.835-0.677,3.853-0.864,5.793-1.246
	c9.192-1.808,18.488-0.565,27.729-0.924c0.858-0.033,1.719-0.004,2.915-0.004c-0.129-2.806-0.205-5.334-0.372-7.856
	c-0.162-2.464-0.468-4.92-0.617-7.385c-0.192-3.18,0.173-6.396-0.794-9.523c-0.229-0.742-0.122-1.588-0.173-2.386
	c-0.286-4.46-0.607-8.919-0.854-13.383c-0.415-7.497-0.76-14.998-1.188-22.494c-0.127-2.224-0.432-4.437-0.656-6.655
	c-0.032-0.318-0.098-0.635-0.106-0.953c-0.296-11.105-1.767-22.171-1.158-33.303c0.227-4.143,0.557-8.288,1.072-12.403
	c0.344-2.736,1.117-5.417,1.666-8.13c0.408-2.018,0.725-4.055,1.158-6.066c0.347-1.61,0.711-3.229,1.239-4.785
	c1.494-4.402,2.89-8.851,4.673-13.136c1.935-4.646,4.172-9.176,6.451-13.667c1.377-2.711,3.02-5.296,4.66-7.864
	c3.3-5.166,6.963-10.061,10.891-14.779c3.886-4.669,8.095-9.009,12.551-13.105c4.704-4.323,9.712-8.299,14.992-11.901
	c6.053-4.128,12.406-7.758,19.066-10.81c3.781-1.732,7.56-3.477,11.602-4.612c3.771-1.059,7.4-2.644,11.188-3.625
	c3.759-0.973,7.639-1.482,11.467-2.192c0.156-0.029,0.331,0.006,0.476-0.048c3.9-1.452,8.068-0.978,12.077-1.668
	c1.645-0.283,3.344-0.347,5.019-0.348c39.436-0.018,78.873-0.049,118.31,0.034c4.461,0.009,8.952,0.46,13.371,1.107
	c4.474,0.655,8.894,1.724,13.3,2.767c4.063,0.962,8.164,1.879,12.092,3.262c7.946,2.798,15.635,6.198,22.953,10.442
	c7.22,4.187,13.972,8.969,20.399,14.293c5.05,4.183,9.725,8.737,14.014,13.634c3.983,4.549,7.509,9.511,11.095,14.395
	c4.242,5.777,7.606,12.09,10.602,18.581c1.719,3.726,3.156,7.587,4.627,11.423c1.01,2.634,2.01,5.29,2.744,8.008
	c0.902,3.342,1.529,6.759,2.264,10.146c0.57,2.627,1.126,5.258,1.686,7.888c0.05,0.234,0.086,0.473,0.112,0.71
	c1.132,10.03,1.44,20.084,0.853,30.163c-0.237,4.066-0.318,8.156-0.828,12.191c-0.765,6.039-0.891,12.099-1.155,18.161
	c-0.181,4.145-0.534,8.282-0.792,12.424c-0.371,5.978-0.373,12.005-1.195,17.919c-0.655,4.706-0.548,9.395-0.867,14.085
	c-0.2,2.943-0.553,5.876-0.804,8.816c-0.066,0.772-0.011,1.555-0.011,2.493c0.999,0.053,1.776,0.129,2.554,0.131
	c4.96,0.011,9.926,0.161,14.877-0.041c4.351-0.177,8.633,0.327,12.834,1.146c5.269,1.028,10.206,3.133,14.673,6.201
	c6.295,4.323,11.253,9.846,14.506,16.765c1.803,3.835,3.35,7.793,3.586,12.136c0.107,1.981,0.627,3.944,0.678,5.923
	c0.044,1.736-0.305,3.482-0.484,5.224c-0.033,0.317-0.116,0.631-0.137,0.949c-0.385,5.732-0.736,11.466-1.158,17.195
	c-0.115,1.579-0.441,3.142-0.658,4.713c-0.098,0.712-0.205,1.425-0.242,2.142c-0.185,3.503-0.32,6.988-0.783,10.494
	c-0.752,5.681-0.841,11.448-1.262,17.176c-0.128,1.741-0.428,3.47-0.643,5.206c-0.099,0.793-0.201,1.586-0.268,2.383
	c-0.297,3.502-0.586,7.004-0.867,10.507c-0.398,4.937-0.766,9.875-1.194,14.808c-0.097,1.104-0.383,2.194-0.61,3.285
	c-0.129,0.623-0.385,1.225-0.465,1.851c-0.578,4.574-1.473,9.067-2.862,13.478c-0.876,2.775-1.343,5.678-2.157,8.475
	c-0.72,2.469-1.633,4.884-2.521,7.3c-1.062,2.881-2.1,5.775-3.305,8.598c-2.223,5.206-4.744,10.265-7.512,15.211
	c-3.892,6.955-8.525,13.403-13.748,19.367c-3.395,3.878-7.38,7.252-11.22,10.721c-3.511,3.172-7.398,5.87-11.54,8.162
	c-2.891,1.6-5.82,3.141-8.813,4.535c-3.069,1.431-6.176,2.833-9.379,3.909c-2.896,0.974-5.94,1.514-8.928,2.204
	c-2.384,0.551-4.778,1.057-7.174,1.548c-0.857,0.176-1.742,0.393-2.602,0.345c-1.567-0.088-2.332,0.748-3.204,1.925
	c-3.986,5.377-7.909,10.822-12.231,15.924c-5.265,6.212-11.057,11.946-17.266,17.25c-5.02,4.287-10.113,8.473-15.666,12.051
	c-5.025,3.238-10.05,6.491-15.217,9.494c-3.426,1.99-7.052,3.665-10.68,5.274c-4.468,1.982-8.984,3.877-13.568,5.572
	c-3.762,1.391-7.645,2.463-11.488,3.625c-3.084,0.932-6.17,1.871-9.294,2.646c-2.299,0.569-4.658,0.899-6.997,1.301
	c-3.058,0.524-6.122,1.014-9.184,1.52c-0.395,0.065-0.784,0.174-1.181,0.202c-8.764,0.604-17.498,1.877-26.316,1.284
	c-2.546-0.171-5.081-0.514-7.622-0.775c-0.875-0.09-1.748-0.229-2.625-0.253c-4.799-0.136-9.516-0.858-14.209-1.832
	c-2.477-0.514-5.017-0.745-7.474-1.332c-3.208-0.766-6.361-1.761-9.54-2.651c-2.503-0.702-5.048-1.281-7.504-2.123
	c-3.361-1.153-6.682-2.442-9.974-3.785c-3.275-1.336-6.514-2.769-9.734-4.234c-5.05-2.299-9.984-4.811-14.632-7.877
	c-4.259-2.81-8.728-5.313-12.89-8.255c-3.793-2.682-7.391-5.661-10.904-8.707c-3.807-3.301-7.587-6.665-11.068-10.299
	c-4.418-4.611-8.716-9.367-12.717-14.341c-5.76-7.16-10.989-14.714-15.186-22.931c-2.57-5.033-5.321-9.981-7.673-15.113
	c-1.692-3.692-2.888-7.616-4.252-11.455c-1.344-3.783-2.648-7.582-3.911-11.393c-0.425-1.279-0.72-2.608-0.985-3.932
	c-0.781-3.886-1.534-7.777-2.265-11.672C292.29,406.847,291.724,403.571,291.124,400.222z M611.6,207.167
	c-2.741-0.711-5.259-1.374-7.782-2.016c-1.848-0.469-3.709-0.881-5.549-1.373c-2.063-0.551-4.107-1.17-6.163-1.747
	c-2.888-0.81-5.783-1.586-8.664-2.414c-2.87-0.825-5.724-1.703-8.589-2.544c-2.493-0.732-5.023-1.354-7.479-2.193
	c-3.586-1.225-7.134-2.565-10.675-3.919c-4.411-1.686-8.891-3.233-13.17-5.212c-4.334-2.004-8.537-4.327-12.652-6.758
	c-4.104-2.424-8.144-4.994-11.993-7.799c-3.991-2.908-7.808-6.065-11.029-9.879c-1.534-1.816-2.353-1.784-4.097-0.053
	c-4.588,4.551-9.532,8.685-14.598,12.684c-8.462,6.679-17.389,12.703-26.736,18.029c-7.617,4.34-15.518,8.199-23.399,12.053
	c-4.51,2.206-9.19,4.082-13.869,5.916c-5.491,2.153-11.03,4.195-16.612,6.101c-3.656,1.249-7.426,2.167-11.142,3.241
	c-1.36,0.394-2.711,0.817-4.067,1.22c-1.806,0.536-3.605,1.092-5.42,1.592c-2.127,0.586-4.264,1.141-6.405,1.672
	c-1.841,0.457-3.688,0.891-5.544,1.282c-2.098,0.443-4.207,0.828-6.313,1.235c-1.559,0.302-3.127,0.563-4.677,0.908
	c-2.712,0.603-5.382,1.533-8.123,1.827c-5.226,0.561-10.287,2.19-15.573,2.28c-0.158,0.002-0.316,0.047-0.475,0.072
	c-3.526,0.552-7.042,1.191-10.583,1.633c-4.103,0.512-8.228,0.849-12.342,1.275c-0.133,0.014-0.251,0.172-0.54,0.383
	c0,0.817-0.063,1.759,0.01,2.691c0.596,7.646,1.345,15.283,1.797,22.938c0.541,9.167,0.989,18.333,1.848,27.484
	c0.55,5.87,0.479,11.794,1.09,17.685c0.451,4.355,0.247,8.75,0.822,13.139c0.713,5.44,0.261,10.975,1.09,16.466
	c0.687,4.553,0.322,9.229,0.889,13.856c0.706,5.776,0.819,11.625,1.145,17.446c0.23,4.139,0.203,8.269,0.778,12.417
	c0.776,5.604,0.873,11.3,1.313,16.953c0.117,1.502,0.385,2.996,0.652,4.481c0.465,2.576,0.974,5.144,1.48,7.711
	c0.4,2.029,0.712,4.085,1.269,6.071c0.763,2.722,1.675,5.406,2.604,8.078c1.361,3.918,2.552,7.921,4.249,11.692
	c2.811,6.239,6.031,12.274,9.651,18.111c3.457,5.574,7.375,10.799,11.532,15.818c3.251,3.926,6.977,7.482,10.688,10.995
	c3.311,3.134,6.763,6.151,10.39,8.906c3.551,2.697,7.415,4.979,11.116,7.479c5.987,4.042,12.453,7.167,19.104,9.91
	c4.097,1.689,8.247,3.271,12.451,4.669c2.984,0.992,6.09,1.627,9.155,2.362c1.77,0.425,3.679,0.467,5.326,1.155
	c2.716,1.135,5.62,0.882,8.398,1.558c2.912,0.709,6.002,0.737,9.021,0.95c8.801,0.621,17.558-0.165,26.313-0.911
	c0.315-0.027,0.621-0.145,0.935-0.205c2.868-0.549,5.738-1.084,8.604-1.644c2.02-0.395,4.05-0.75,6.044-1.251
	c1.981-0.497,3.926-1.144,5.881-1.746c2.272-0.701,4.609-1.257,6.794-2.174c5.202-2.184,10.375-4.448,15.472-6.866
	c3.256-1.545,6.459-3.256,9.498-5.188c5.23-3.323,10.445-6.716,15.125-10.797c4.26-3.716,8.292-7.693,12.431-11.549
	c0.581-0.542,1.2-1.044,0.845-1.904c-1.827-0.471-3.585-0.898-5.328-1.381c-2.449-0.677-4.924-1.288-7.321-2.118
	c-3.425-1.187-6.793-2.534-10.177-3.835c-4.452-1.712-8.967-3.285-13.324-5.211c-5.108-2.258-10.099-4.788-15.089-7.303
	c-0.92-0.463-1.457-0.366-2.36,0.036c-3.521,1.57-7.035,3.291-10.729,4.3c-3.347,0.913-6.861,1.305-10.419,1.313
	c-4.027,0.009-8.037-0.197-11.87-1.247c-3.544-0.972-6.971-2.495-10.31-4.07c-5.934-2.8-10.707-7.156-14.83-12.16
	c-3.769-4.575-6.449-9.86-8.098-15.524c-1.355-4.655-2.168-9.491-1.95-14.397c0.081-1.826,0.574-3.634,0.653-5.46
	c0.193-4.438,1.751-8.513,3.469-12.476c2.101-4.848,5.032-9.23,8.813-12.992c3.148-3.135,6.505-5.957,10.401-8.187
	c3.354-1.92,6.911-3.256,10.523-4.486c1.71-0.582,3.523-1.058,5.315-1.166c7.072-0.426,14.081-0.609,21.01,1.734
	c5.053,1.709,9.765,3.928,13.922,7.152c5.012,3.886,9.338,8.5,12.381,14.14c1.899,3.521,3.621,7.145,4.383,11.126
	c0.387,2.025,0.675,4.071,1.107,6.086c0.801,3.733,0.771,7.442,0.022,11.182c-0.264,1.314-0.228,2.688-0.334,4.114
	c17.12,8.428,34.677,15.038,53.77,17.556c1.157-2.721,2.3-5.219,3.285-7.776c1.125-2.918,2.14-5.88,3.146-8.842
	c0.912-2.68,1.931-5.342,2.579-8.087c0.984-4.172,1.786-8.394,2.484-12.625c0.676-4.088,1.272-8.202,1.626-12.328
	c0.374-4.369,0.373-8.748,0.931-13.131c0.756-5.928,0.793-11.946,1.162-17.924c0.252-4.062,0.566-8.12,0.817-12.181
	c0.359-5.81,0.185-11.631,1.068-17.436c0.634-4.156,0.38-8.422,0.815-12.652c0.769-7.456,0.887-14.979,1.267-22.474
	c0.093-1.837,0.096-3.679,0.231-5.512c0.235-3.179,0.562-6.351,0.812-9.529c0.145-1.833,0.197-3.672,0.321-5.507
	c0.516-7.655,1.063-15.308,1.561-22.963c0.523-8.053,1.004-16.107,1.503-24.162c0.005-0.08,0.018-0.159,0.022-0.239
	C610.798,219.078,611.184,213.344,611.6,207.167z M523.653,37.252c-1.719-0.031-3.541-0.09-5.362-0.091
	c-26.95-0.006-53.901-0.154-80.85,0.059c-13.48,0.106-27.003-1.106-40.444,0.938c-2.821,0.429-5.702,0.558-8.48,1.171
	c-3.061,0.675-6.019,1.804-9.05,2.634c-5.047,1.382-9.778,3.52-14.409,5.898c-4.97,2.552-9.818,5.312-14.122,8.919
	c-3.568,2.991-7.231,5.885-10.618,9.072c-3.797,3.575-7.039,7.666-10.16,11.86c-3.012,4.046-5.705,8.273-7.952,12.771
	c-1.581,3.166-3.075,6.394-4.329,9.7c-1.424,3.758-2.616,7.611-3.751,11.47c-0.578,1.966-0.831,4.032-1.193,6.059
	c-0.572,3.197-1.465,6.387-1.59,9.604c-0.24,6.146-0.103,12.311,0.021,18.465c0.043,2.134,0.588,4.253,0.764,6.391
	c0.326,3.975,0.576,7.956,0.809,11.938c0.409,7.014,0.793,14.03,1.163,21.046c0.093,1.756-0.022,3.529,0.161,5.273
	c0.229,2.184,0.669,4.345,1.042,6.67c1.911-0.145,3.583-0.209,5.239-0.41c4.035-0.487,8.063-1.026,12.092-1.566
	c3.549-0.476,7.104-0.93,10.64-1.492c2.829-0.449,5.636-1.043,8.451-1.578c1.941-0.369,3.879-0.762,5.822-1.116
	c2.258-0.412,4.527-0.766,6.781-1.197c1.548-0.296,3.09-0.639,4.615-1.035c1.976-0.513,3.919-1.147,5.898-1.64
	c1.84-0.458,3.746-0.67,5.557-1.214c4.074-1.224,8.088-2.654,12.163-3.877c5.72-1.717,11.334-3.699,16.91-5.849
	c5.06-1.951,10.095-3.935,14.991-6.261c4.132-1.963,8.302-3.863,12.329-6.025c7.121-3.822,14.063-7.934,20.723-12.557
	c5.63-3.907,11.124-7.97,16.234-12.502c6.843-6.07,13.281-12.574,18.724-19.967c1.468-1.994,3.114-3.912,3.868-6.381
	c0.547-1.796,1.261-3.544,1.933-5.302c1.294-3.387,2.627-6.759,3.913-10.149c0.756-1.994,1.432-4.019,2.182-6.015
	c1.213-3.227,2.476-6.435,3.683-9.665c0.767-2.051,1.43-4.14,2.21-6.186c1.266-3.316,2.595-6.608,3.885-9.915
	c0.889-2.278,1.787-4.554,2.627-6.85c1.132-3.09,2.182-6.211,3.323-9.297c0.84-2.269,1.953-4.454,2.601-6.772
	C523.125,40.735,524.497,39.341,523.653,37.252z M560.531,47.174c-0.921,2.418-1.776,4.617-2.597,6.83
	c-0.714,1.928-1.361,3.881-2.085,5.805c-1.238,3.292-2.533,6.563-3.764,9.857c-0.743,1.99-1.367,4.023-2.118,6.01
	c-1.308,3.46-2.692,6.891-4.006,10.349c-1.426,3.758-2.801,7.535-4.212,11.299c-1.536,4.098-3.104,8.184-4.63,12.286
	c-0.745,2.006-1.366,4.059-2.142,6.052c-1.541,3.962-3.193,7.882-4.688,11.86c-0.252,0.668-0.204,1.695,0.148,2.297
	c1.149,1.966,2.275,4.027,3.822,5.664c5.465,5.784,12.134,9.962,19.115,13.654c3.652,1.931,7.348,3.747,11.305,5.049
	c3.293,1.084,6.401,2.725,9.688,3.833c4.568,1.542,9.217,2.851,13.85,4.198c4.523,1.315,9.066,2.562,13.605,3.821
	c1.365,0.378,2.76,0.658,4.119,1.055c1.748,0.51,3.458,1.155,5.217,1.62c0.872,0.23,1.816,0.19,2.859,0.284
	c0.344-5.159,0.677-10.008,0.983-14.859c0.121-1.915,0.128-3.838,0.288-5.749c0.173-2.058,0.625-4.102,0.676-6.158
	c0.21-8.451,0.303-16.898-1.809-25.193c-0.857-3.369-1.335-6.846-2.357-10.16c-1.514-4.904-3.524-9.624-5.748-14.273
	c-3.274-6.851-7.403-13.111-12.142-18.995c-8.324-10.335-18.415-18.555-30.063-24.881C562.821,48.174,561.731,47.734,560.531,47.174
	z M288.242,362.817c0-0.968,0.039-1.747-0.007-2.521c-0.271-4.536-0.258-9.067-0.802-13.614c-0.814-6.81-0.896-13.707-1.313-20.566
	c-0.194-3.188-0.519-6.37-0.647-9.56c-0.277-6.869-0.848-13.711-1.413-20.561c-0.625-7.563-0.82-15.16-1.235-22.741
	c-0.153-2.794-0.449-3.025-3.37-3.027c-6.878-0.004-13.756,0.027-20.634-0.022c-1.549-0.012-2.989,0.218-4.404,0.834
	c-1.701,0.742-3.153,3.459-2.879,5.312c0.279,1.883,0.479,3.782,0.634,5.68c0.13,1.593,0.07,3.201,0.224,4.791
	c0.505,5.235,1.116,10.46,1.593,15.698c0.318,3.487,0.294,6.975,0.863,10.476c0.78,4.791,0.878,9.694,1.231,14.551
	c0.406,5.575,0.771,11.152,1.159,16.729c0.028,0.398,0.11,0.792,0.151,1.189c0.307,2.935,0.571,5.874,0.927,8.802
	c0.22,1.811,0.466,3.634,0.923,5.394c0.199,0.767,0.817,1.632,1.494,2.024c1.351,0.785,2.772,1.371,4.487,1.344
	c6.796-0.109,13.595-0.039,20.394-0.05C286.396,362.978,287.175,362.886,288.242,362.817z M638.993,362.662
	c0.619,0.15,0.923,0.288,1.228,0.288c7.038,0.017,14.079,0.142,21.111-0.049c2.101-0.057,4.193-0.981,4.814-3.5
	c0.261-1.057,0.669-2.096,0.78-3.167c0.215-2.064,0.229-4.149,0.395-6.22c0.521-6.527,1.063-13.052,1.626-19.576
	c0.165-1.907,0.428-3.807,0.651-5.709c0.148-1.268,0.359-2.532,0.451-3.804c0.43-5.974,0.827-11.95,1.237-17.925
	c0.017-0.239,0.043-0.478,0.069-0.716c0.539-4.91,1.114-9.816,1.605-14.731c0.365-3.649,0.62-7.309,0.926-10.963
	c0.181-2.158-0.979-4.771-2.666-5.418c-1.307-0.501-2.748-0.88-4.136-0.902c-6.077-0.096-12.156-0.042-18.234-0.042
	c-4.368,0-4.353,0.001-4.564,4.311c-0.373,7.583-0.763,15.165-1.159,22.747c-0.055,1.037-0.2,2.069-0.277,3.105
	c-0.589,7.964-1.226,15.926-1.74,23.895c-0.479,7.415-0.826,14.838-1.232,22.258c-0.004,0.08-0.002,0.162-0.022,0.239
	c-1.048,4.082-0.674,8.262-0.854,12.403C638.953,360.287,638.993,361.394,638.993,362.662z M636.377,400.164
	c-0.995,1.869-1.129,3.822-1.272,5.816c-0.142,1.959-0.572,3.902-0.934,5.841c-0.362,1.941-0.756,3.878-1.211,5.799
	c-0.457,1.927-1.26,3.808-1.443,5.753c-0.178,1.897-1.787,3.501-1.3,5.537c0.426,0,0.622,0.063,0.729-0.009
	c5.989-4.06,11.022-9.125,15.303-14.917c2.743-3.712,5.216-7.621,7.228-11.793c0.277-0.577,0.406-1.226,0.663-2.027
	C647.966,400.164,642.159,400.164,636.377,400.164z M487.556,401.996c-5.505-0.345-9.246,4.417-9.169,9.003
	c0.079,4.728,3.576,8.977,9.224,9.027c5.575,0.05,9.197-4.609,9.212-9.091C496.838,406.533,493.113,401.584,487.556,401.996z"/>
<path fill="#148fcf" fill-rule="evenodd" clip-rule="evenodd" d="M286.24,533.056c0,1.599,0.038,3.199-0.007,4.797
	c-0.17,6.152-3.146,10.657-8.041,14.212c-4.339,3.149-9.194,3.666-14.133,2.807c-5.107-0.89-9.096-3.886-11.891-8.314
	c-1.958-3.103-2.793-6.554-2.898-10.184c-0.065-2.236-0.088-4.479,0.001-6.715c0.309-7.725,3.663-13.616,10.691-17.12
	c1.821-0.908,3.774-1.528,5.903-1.583c3.697-0.094,7.295,0.032,10.637,1.924c4.274,2.419,7.28,5.784,8.92,10.503
	c0.627,1.804,0.774,3.541,0.819,5.356c0.035,1.438,0.007,2.879,0.007,4.317C286.246,533.056,286.243,533.056,286.24,533.056z"/>
</svg>
