<?xml version="1.0" encoding="utf-8"?>
<!-- Generator: Adobe Illustrator 16.0.0, SVG Export Plug-In . SVG Version: 6.00 Build 0)  -->
<!DOCTYPE svg PUBLIC "-//W3C//DTD SVG 1.1//EN" "http://www.w3.org/Graphics/SVG/1.1/DTD/svg11.dtd">
<svg version="1.1" id="Layer_1" xmlns="http://www.w3.org/2000/svg" xmlns:xlink="http://www.w3.org/1999/xlink" x="0px" y="0px" width="370.8px" height="268.959px" viewBox="0 0 370.8 268.959" enable-background="new 0 0 370.8 268.959" xml:space="preserve">
<g>
	<g>
		<defs>
			<rect id="SVGID_1_" y="0.159" width="370.8" height="268.8"/>
		</defs>
		<clipPath fill="#fff" id="SVGID_2_">
			<use xlink:href="#SVGID_1_"  overflow="visible"/>
		</clipPath>
		<path fill="#fff" clip-path="url(#SVGID_2_)" d="M351.602,51.199h-6.801V38c0-6.84-5.563-12.403-12.402-12.403H294
			c-6.836,0-12.398,5.563-12.398,12.403v13.199h-29.652l-3.211-20.461c-0.004-0.016-0.004-0.027-0.008-0.043l-0.004-0.027
			c-0.008-0.055-0.023-0.106-0.031-0.16c-0.047-0.25-0.109-0.504-0.191-0.75c-0.016-0.051-0.027-0.098-0.043-0.149
			c-0.023-0.07-0.059-0.14-0.086-0.211c-0.043-0.105-0.082-0.215-0.129-0.316c-0.031-0.063-0.066-0.125-0.094-0.188
			c-0.059-0.109-0.113-0.218-0.176-0.324c-0.035-0.058-0.07-0.113-0.109-0.172c-0.066-0.109-0.137-0.215-0.215-0.32
			c-0.02-0.024-0.031-0.051-0.051-0.078L228.398,2.398C227.266,0.89,225.488,0,223.602,0h-76.801c-1.891,0-3.668,0.89-4.801,2.398
			L122.801,28c-0.02,0.027-0.035,0.054-0.055,0.078c-0.074,0.105-0.144,0.211-0.215,0.32c-0.035,0.059-0.074,0.114-0.105,0.172
			c-0.063,0.106-0.121,0.215-0.176,0.324c-0.031,0.063-0.066,0.125-0.094,0.188c-0.051,0.105-0.09,0.211-0.133,0.32
			c-0.027,0.07-0.058,0.137-0.085,0.211c-0.016,0.047-0.028,0.098-0.043,0.145c-0.079,0.246-0.141,0.5-0.188,0.754
			c-0.012,0.05-0.027,0.105-0.035,0.156l-0.004,0.027c0,0.016-0.004,0.031-0.008,0.043l-3.207,20.461H108V38
			c0-6.84-5.562-12.403-12.398-12.403H70c-6.836,0-12.398,5.563-12.398,12.403v13.199h-7.204v-6.801C50.398,37.562,44.836,32,38,32
			H25.199c-6.836,0-12.398,5.562-12.398,12.398v7.789C5.367,54.695,0,61.73,0,70v179.199C0,259.566,8.434,268,18.801,268h332.801
			c10.363,0,18.797-8.434,18.797-18.801V70C370.398,59.633,361.965,51.199,351.602,51.199L351.602,51.199z M12,127.199h46.586
			C61.098,134.633,68.133,140,76.398,140c8.27,0,15.305-5.367,17.813-12.801h12.312l-1.328,8.469
			c-1.238,7.886-1.867,15.938-1.867,23.929c0,7.993,0.629,16.043,1.867,23.935l7.356,46.867H12V127.199z M69.602,121.199
			c0-3.75,3.05-6.801,6.796-6.801c3.75,0,6.801,3.051,6.801,6.801S80.148,128,76.398,128C72.652,128,69.602,124.949,69.602,121.199
			L69.602,121.199z M132.73,37.597h104.938l11.258,71.735c-14.883-18.828-37.918-30.934-63.727-30.934
			c-25.808,0-48.84,12.106-63.722,30.934L132.73,37.597z M116,159.597c0-38.156,31.043-69.199,69.199-69.199
			s69.199,31.043,69.199,69.199c0,38.161-31.043,69.204-69.199,69.204S116,197.758,116,159.597L116,159.597z M265.203,183.531
			c1.238-7.892,1.867-15.941,1.867-23.935c0-7.987-0.629-16.043-1.867-23.929l-1.328-8.469h94.523v103.199H257.848L265.203,183.531z
			 M293.602,38c0-0.223,0.18-0.403,0.398-0.403h38.398c0.223,0,0.402,0.18,0.402,0.403v13.199h-39.199V38z M351.602,63.199
			c3.746,0,6.797,3.051,6.797,6.801v45.199h-96.406l-8.16-52H351.602z M149.801,12h70.801l10.199,13.597h-91.199L149.801,12z
			 M69.602,38c0-0.223,0.179-0.403,0.398-0.403h25.602C95.82,37.597,96,37.777,96,38v13.199H69.602V38z M25.199,44H38
			c0.219,0,0.398,0.179,0.398,0.398v6.801H24.801v-6.801C24.801,44.179,24.98,44,25.199,44L25.199,44z M18.801,63.199h97.765
			l-8.16,52H94.211c-2.508-7.434-9.543-12.801-17.813-12.801c-8.265,0-15.3,5.367-17.812,12.801H12V70
			C12,66.25,15.051,63.199,18.801,63.199L18.801,63.199z M12,249.199v-6.801h102.434l0.675,4.305
			c0.532,3.394,1.715,6.531,3.403,9.297H18.801C15.051,256,12,252.949,12,249.199L12,249.199z M146.801,256L140,255.996
			c-6.539,0-12.023-4.692-13.035-11.152l-5.488-34.977c14.882,18.828,37.914,30.934,63.722,30.934
			c25.809,0,48.844-12.105,63.727-30.934l-5.488,34.977c-1.016,6.464-6.5,11.156-13.043,11.156H146.801z M351.602,256h-99.711
			c1.688-2.766,2.867-5.903,3.398-9.293l0.676-4.309h102.434v6.801C358.398,252.949,355.348,256,351.602,256L351.602,256z
			 M351.602,256"/>
	</g>
	<path fill="#fff" d="M185.199,216.801c31.539,0,57.199-25.661,57.199-57.204c0-31.539-25.66-57.199-57.199-57.199S128,128.058,128,159.597
		C128,191.14,153.66,216.801,185.199,216.801L185.199,216.801z M185.199,114.398c24.926,0,45.199,20.278,45.199,45.199
		c0,24.927-20.273,45.204-45.199,45.204c-24.922,0-45.199-20.277-45.199-45.204C140,134.676,160.277,114.398,185.199,114.398
		L185.199,114.398z M185.199,114.398"/>
	<path fill="#fff" d="M185.199,184.801c13.895,0,25.199-11.305,25.199-25.204c0-13.894-11.305-25.199-25.199-25.199
		c-13.894,0-25.199,11.306-25.199,25.199C160,173.496,171.305,184.801,185.199,184.801L185.199,184.801z M185.199,146.398
		c7.277,0,13.199,5.922,13.199,13.198c0,7.282-5.922,13.204-13.199,13.204S172,166.879,172,159.597
		C172,152.32,177.922,146.398,185.199,146.398L185.199,146.398z M185.199,146.398"/>
</g>
</svg>
